{
  "project_info": {
    "project_number": "290653896778",
    "firebase_url": "https://goonews-de522.firebaseio.com",
    "project_id": "goonews-de522",
    "storage_bucket": "goonews-de522.appspot.com"
  },
  "client": [
    {
      "client_info": {
        "mobilesdk_app_id": "1:290653896778:android:4da5b2f3576136b9",
        "android_client_info": {
          "package_name": "id.rey.goonews"
        }
      },
      "oauth_client": [
        {
          "client_id": "290653896778-o856ch8p5bicqeg6cjr6iili4pjpftd2.apps.googleusercontent.com",
          "client_type": 1,
          "android_info": {
            "package_name": "id.rey.goonews",
            "certificate_hash": "0a187ad455c1de587b3d64a81c9f75a441a9105f"
          }
        },
        {
          "client_id": "290653896778-b0h8rp8v421h2mh35ed2so337nqtfsff.apps.googleusercontent.com",
          "client_type": 3
        }
      ],
      "api_key": [
        {
          "current_key": "AIzaSyBO8NQIyWvVkxBtho77KavblYqNnxMEEAM"
        }
      ],
      "services": {
        "appinvite_service": {
          "other_platform_oauth_client": [
            {
              "client_id": "290653896778-b0h8rp8v421h2mh35ed2so337nqtfsff.apps.googleusercontent.com",
              "client_type": 3
            }
          ]
        }
      }
    }
  ],
  "configuration_version": "1"
}